vhdl work "../src/nand_driver/nand_driver.vhd"
vhdl work "../src/fifo1_2048/core/fifo1_2048/fifo_generator_v8_2.vhd"
vhdl work "../src/nand_driver/nand_driver_io.vhd"
vhdl work "../src/fifo23_8192/core/fifo23_8192/fifo23_8192.vhd"
vhdl work "../src/fifo1_2048/fifo1_2048_top.vhd"
vhdl work "../src/top_nand/top_nand.vhd"
