+----------------------------------------------------------------------------------------------------------------------------------------------------------------------------------------------------------------------------------------+
; Legal Partition Candidates                                                                                                                                                                                                             ;
+-----------------------------------+-------+----------------+--------------+----------------+--------+-----------------+---------------+-----------------+-------+----------------+--------------+------------------+-------------------+
; Hierarchy                         ; Input ; Constant Input ; Unused Input ; Floating Input ; Output ; Constant Output ; Unused Output ; Floating Output ; Bidir ; Constant Bidir ; Unused Bidir ; Input only Bidir ; Output only Bidir ;
+-----------------------------------+-------+----------------+--------------+----------------+--------+-----------------+---------------+-----------------+-------+----------------+--------------+------------------+-------------------+
; ECCmodule|CTRLfsm                 ; 37    ; 4              ; 0            ; 4              ; 62     ; 4               ; 4             ; 4               ; 8     ; 0              ; 0            ; 0                ; 0                 ;
; ECCmodule|errorLOCATIONblock      ; 39    ; 0              ; 0            ; 0              ; 21     ; 0               ; 0             ; 0               ; 0     ; 0              ; 0            ; 0                ; 0                 ;
; ECCmodule|GenerateECC             ; 22    ; 0              ; 0            ; 0              ; 32     ; 0               ; 0             ; 0               ; 0     ; 0              ; 0            ; 0                ; 0                 ;
; ECCmodule                         ; 12    ; 40             ; 0            ; 40             ; 49     ; 40              ; 40            ; 40              ; 16    ; 0              ; 0            ; 0                ; 0                 ;
; NANDcontroller|Buffer2            ; 22    ; 0              ; 0            ; 0              ; 8      ; 0               ; 0             ; 0               ; 0     ; 0              ; 0            ; 0                ; 0                 ;
; NANDcontroller|Buffer1            ; 22    ; 0              ; 0            ; 0              ; 8      ; 0               ; 0             ; 0               ; 0     ; 0              ; 0            ; 0                ; 0                 ;
; NANDcontroller|statemachineMNvcs2 ; 43    ; 3              ; 0            ; 3              ; 85     ; 3               ; 3             ; 3               ; 8     ; 0              ; 0            ; 0                ; 0                 ;
; NANDcontroller                    ; 27    ; 0              ; 0            ; 0              ; 43     ; 0               ; 0             ; 0               ; 8     ; 0              ; 0            ; 0                ; 0                 ;
+-----------------------------------+-------+----------------+--------------+----------------+--------+-----------------+---------------+-----------------+-------+----------------+--------------+------------------+-------------------+
